[
  "obsidian-git",
  "omnisearch",
  "text-extractor",
  "obsidian-icon-folder",
  "table-editor-obsidian",
  "folder-note-plugin",
  "waypoint",
  "3d-graph",
  "cm-editor-syntax-highlight-obsidian",
  "obsidian-code-block-enhancer",
  "mermaid-tools",
  "mermaid-themes",
  "keyword-highlighter"
]